{
  "redis": {
    "host": "localhost",
    "port": "6379",
    "network": "tcp"
  },
  "api": {
    "host": "localhost",
    "port": "5000"
  },
  "webapp": {
    "host": "localhost",
    "port": "8080"
  },
  "captor": {
    "qos": 2,
    "durationSleep": 10,
    "brokerURI": "tcp://localhost:1883"
  }
}